…
relevel(factor(data9$year), ref = "1961")2021 
                                  -9.58667182 
> sum(a>=0)
[1] 49
> sum(a<=0)
[1] 49
> sum(b>=0)
[1] 34
> sum(b<=0)
[1] 34
> #### time series
> ## Japan/Kyoto
> library('astsa')
> data99<-data9[data9$Location=="Japan/Kyoto",]; data99 # data for Japan/Kyoto only
# A tibble: 69 × 6
# Groups:   Location [1]
   Location      lat  long   alt year  Fbloom_doy
   <chr>       <dbl> <dbl> <dbl> <chr>      <dbl>
 1 Japan/Kyoto  35.0  136.  40.8 1953         101
 2 Japan/Kyoto  35.0  136.  40.8 1954          95
 3 Japan/Kyoto  35.0  136.  40.8 1955          97
 4 Japan/Kyoto  35.0  136.  40.8 1956         101
 5 Japan/Kyoto  35.0  136.  40.8 1959          92
 6 Japan/Kyoto  35.0  136.  40.8 1966          96
 7 Japan/Kyoto  35.0  136.  40.8 1968          96
 8 Japan/Kyoto  35.0  136.  40.8 1969         103
 9 Japan/Kyoto  35.0  136.  40.8 1970         105
10 Japan/Kyoto  35.0  136.  40.8 1971          97
# … with 59 more rows
…
  object 'kyoto_Full_bloom_day' not found
> acf2(kyoto_Full_bloom_day)
Error in acf2(kyoto_Full_bloom_day) : 
  object 'kyoto_Full_bloom_day' not found
> kyoto1 = diff(kyoto_Full_bloom_day) #differenced
Error in diff(kyoto_Full_bloom_day) : 
  object 'kyoto_Full_bloom_day' not found
> plot(diff(kyoto_Full_bloom_day))
Error in diff(kyoto_Full_bloom_day) : 
  object 'kyoto_Full_bloom_day' not found
> #### time series
> ## Japan/Kyoto
> library('astsa')
> data99<-data9[data9$Location=="Japan/Kyoto",]; data99 # data for Japan/Kyoto only
# A tibble: 69 × 6
# Groups:   Location [1]
   Location      lat  long   alt year  Fbloom_doy
   <chr>       <dbl> <dbl> <dbl> <chr>      <dbl>
 1 Japan/Kyoto  35.0  136.  40.8 1953         101
 2 Japan/Kyoto  35.0  136.  40.8 1954          95
 3 Japan/Kyoto  35.0  136.  40.8 1955          97
 4 Japan/Kyoto  35.0  136.  40.8 1956         101
 5 Japan/Kyoto  35.0  136.  40.8 1959          92
 6 Japan/Kyoto  35.0  136.  40.8 1966          96
 7 Japan/Kyoto  35.0  136.  40.8 1968          96
 8 Japan/Kyoto  35.0  136.  40.8 1969         103
 9 Japan/Kyoto  35.0  136.  40.8 1970         105
10 Japan/Kyoto  35.0  136.  40.8 1971          97
# … with 59 more rows
…
  object 'kyoto_Full_bloom_day' not found
> acf2(kyoto_Full_bloom_day)
Error in acf2(kyoto_Full_bloom_day) : 
  object 'kyoto_Full_bloom_day' not found
> kyoto <- ts(data99$Fbloom_doy,start=c(1953,1),frequency=1);kyoto_ts
Error: object 'kyoto_ts' not found
> plot (mean$mean~mean$year,col="red",lwd=2, xlab="Year", 
+       ylab="Mean of full bloom date", main="Mean of Fbloom day vs Year",pch = 19,cex=0.6,
+       cex.axis = 1.1, cex.lab = 1.2,font.lab=2)
Error in mean$mean : object of type 'closure' is not subsettable
> #### time series
> ## Japan/Kyoto
> library('astsa')
> data99<-data9[data9$Location=="Japan/Kyoto",]; data99 # data for Japan/Kyoto only
# A tibble: 69 × 6
# Groups:   Location [1]
   Location      lat  long   alt year  Fbloom_doy
   <chr>       <dbl> <dbl> <dbl> <chr>      <dbl>
 1 Japan/Kyoto  35.0  136.  40.8 1953         101
 2 Japan/Kyoto  35.0  136.  40.8 1954          95
 3 Japan/Kyoto  35.0  136.  40.8 1955          97
 4 Japan/Kyoto  35.0  136.  40.8 1956         101
 5 Japan/Kyoto  35.0  136.  40.8 1959          92
 6 Japan/Kyoto  35.0  136.  40.8 1966          96
 7 Japan/Kyoto  35.0  136.  40.8 1968          96
 8 Japan/Kyoto  35.0  136.  40.8 1969         103
 9 Japan/Kyoto  35.0  136.  40.8 1970         105
10 Japan/Kyoto  35.0  136.  40.8 1971          97
# … with 59 more rows
…
Time Series:
Start = 1953 
End = 2021 
Frequency = 1 
 [1] 101  95  97 101  92  96  96 103 105  97  98  98  99 100 100  93 103  99  99  98  90  99 105  98
[25]  98  96 102  92  88  96  94  96  96  96 100  94  91  92 101  93  87  94  94  98  96  93  92  95
[49]  91  97 100  89  92  91  93  97  87  96  90  85 102  98  96  96  97  99  97 107  96
> plot(kyoto_Full_bloom_day)
Error in plot(kyoto_Full_bloom_day) : 
  object 'kyoto_Full_bloom_day' not found
> acf2(kyoto_Full_bloom_day)
Error in acf2(kyoto_Full_bloom_day) : 
  object 'kyoto_Full_bloom_day' not found
> data99<-data9[data9$Location=="Japan/Kyoto",]; data99 # data for Japan/Kyoto only
# A tibble: 69 × 6
# Groups:   Location [1]
   Location      lat  long   alt year  Fbloom_doy
   <chr>       <dbl> <dbl> <dbl> <chr>      <dbl>
 1 Japan/Kyoto  35.0  136.  40.8 1953         101
 2 Japan/Kyoto  35.0  136.  40.8 1954          95
 3 Japan/Kyoto  35.0  136.  40.8 1955          97
 4 Japan/Kyoto  35.0  136.  40.8 1956         101
 5 Japan/Kyoto  35.0  136.  40.8 1959          92
 6 Japan/Kyoto  35.0  136.  40.8 1966          96
 7 Japan/Kyoto  35.0  136.  40.8 1968          96
 8 Japan/Kyoto  35.0  136.  40.8 1969         103
 9 Japan/Kyoto  35.0  136.  40.8 1970         105
10 Japan/Kyoto  35.0  136.  40.8 1971          97
# … with 59 more rows
…
$se
Time Series:
Start = 2022 
End = 2026 
Frequency = 1 
[1] 4.108344 4.216291 4.217276 4.434190 4.499137

> ## Historical data
> data13<-data9[data9$Location=="Japan/Kyoto",]; data99 # data for Japan/Kyoto only
# A tibble: 69 × 6
# Groups:   Location [1]
   Location      lat  long   alt year  Fbloom_doy
   <chr>       <dbl> <dbl> <dbl> <chr>      <dbl>
 1 Japan/Kyoto  35.0  136.  40.8 1953         101
 2 Japan/Kyoto  35.0  136.  40.8 1954          95
 3 Japan/Kyoto  35.0  136.  40.8 1955          97
 4 Japan/Kyoto  35.0  136.  40.8 1956         101
 5 Japan/Kyoto  35.0  136.  40.8 1959          92
 6 Japan/Kyoto  35.0  136.  40.8 1966          96
 7 Japan/Kyoto  35.0  136.  40.8 1968          96
 8 Japan/Kyoto  35.0  136.  40.8 1969         103
 9 Japan/Kyoto  35.0  136.  40.8 1970         105
10 Japan/Kyoto  35.0  136.  40.8 1971          97
# … with 59 more rows
…
     [,18] [,19]
ACF  -0.02  0.02
PACF  0.01 -0.01
> ?ifelse
> kyoto1 = diff(kyoto) #differenced
> plot(diff(kyoto))
> acf2(kyoto1)
      [,1]  [,2]  [,3]  [,4] [,5]  [,6]  [,7]  [,8]  [,9] [,10] [,11] [,12] [,13] [,14] [,15] [,16]
ACF  -0.41 -0.19  0.17 -0.19 0.27 -0.18  0.00  0.09 -0.12  0.05 -0.04  0.08 -0.01 -0.06 -0.06  0.08
PACF -0.41 -0.43 -0.18 -0.39 0.03 -0.19 -0.02 -0.06 -0.03 -0.13 -0.11 -0.01  0.00  0.03 -0.16 -0.04
     [,17] [,18] [,19]
ACF   0.05 -0.09  0.11
PACF -0.06 -0.05  0.09
> datanm<-data6 [misspercent==0,]; datanm
# A tibble: 41 × 73
# Groups:   Location [41]
   Location       lat  long   alt `1953` `1954` `1955` `1956` `1959` `1966` `1968` `1969` `1970` `1971`
   <chr>        <dbl> <dbl> <dbl>  <dbl>  <dbl>  <dbl>  <dbl>  <dbl>  <dbl>  <dbl>  <dbl>  <dbl>  <dbl>
 1 Japan/Akita   39.7  140.   6.3    119    112    113    117    107    115    115    119    121    119
 2 Japan/Asahi…  43.8  142. 120.     136    138    134    134    133    138    126    129    130    135
 3 Japan/Choshi  35.7  141.  20.1     95     95     94    102     92     95     95    101    107     98
 4 Japan/Fukui   36.1  136.   8.8    102     96     99    105     94     99    102    103    109    103
 5 Japan/Fukus…  37.8  140.  67.4    101     99    101    107     98    104    102    104    111    104
 6 Japan/Gifu    35.4  137.  12.7     99     95     91     98     93     96    100    101    105     97
 7 Japan/Hakod…  41.8  141.  35      129    127    134    129    122    131    128    128    131    134
 8 Japan/Hikone  35.3  136.  87.3    102     97     98    103     95    103    104    104    108    100
 9 Japan/Hiros…  34.4  132.   3.6    101     96     96    102     93     97     98    103    104     97
10 Japan/Kagos…  31.6  131.   3.9     98     98     93     93     89     86     95     97     97     93
# … with 31 more rows, and 59 more variables: `1972` <dbl>, `1973` <dbl>, `1974` <dbl>, `1975` <dbl>,
#   `1976` <dbl>, `1977` <dbl>, `1978` <dbl>, `1979` <dbl>, `1980` <dbl>, `1981` <dbl>, `1982` <dbl>,
#   `1983` <dbl>, `1984` <dbl>, `1985` <dbl>, `1986` <dbl>, `1987` <dbl>, `1988` <dbl>, `1989` <dbl>,
#   `1990` <dbl>, `1991` <dbl>, `1992` <dbl>, `1993` <dbl>, `1994` <dbl>, `1995` <dbl>, `1996` <dbl>,
#   `1997` <dbl>, `1998` <dbl>, `1999` <dbl>, `2000` <dbl>, `2001` <dbl>, `2002` <dbl>, `2003` <dbl>,
#   `2004` <dbl>, `2005` <dbl>, `2006` <dbl>, `2007` <dbl>, `2008` <dbl>, `2009` <dbl>, `2010` <dbl>,
#   `2011` <dbl>, `2012` <dbl>, `2013` <dbl>, `2014` <dbl>, `2015` <dbl>, `2016` <dbl>, …
> datanm2<-datanm %>% pivot_longer(5:73, names_to = "year", values_to = "Fbloom_doy"); 
> print(datanm2,n=50)
# A tibble: 2,829 × 6
# Groups:   Location [41]
   Location      lat  long   alt year  Fbloom_doy
   <chr>       <dbl> <dbl> <dbl> <chr>      <dbl>
 1 Japan/Akita  39.7  140.   6.3 1953         119
 2 Japan/Akita  39.7  140.   6.3 1954         112
 3 Japan/Akita  39.7  140.   6.3 1955         113
 4 Japan/Akita  39.7  140.   6.3 1956         117
 5 Japan/Akita  39.7  140.   6.3 1959         107
 6 Japan/Akita  39.7  140.   6.3 1966         115
 7 Japan/Akita  39.7  140.   6.3 1968         115
 8 Japan/Akita  39.7  140.   6.3 1969         119
 9 Japan/Akita  39.7  140.   6.3 1970         121
10 Japan/Akita  39.7  140.   6.3 1971         119
11 Japan/Akita  39.7  140.   6.3 1972         113
12 Japan/Akita  39.7  140.   6.3 1973         113
13 Japan/Akita  39.7  140.   6.3 1974         120
14 Japan/Akita  39.7  140.   6.3 1975         115
15 Japan/Akita  39.7  140.   6.3 1976         119
16 Japan/Akita  39.7  140.   6.3 1977         117
17 Japan/Akita  39.7  140.   6.3 1978         120
18 Japan/Akita  39.7  140.   6.3 1979         115
19 Japan/Akita  39.7  140.   6.3 1980         119
20 Japan/Akita  39.7  140.   6.3 1981         117
21 Japan/Akita  39.7  140.   6.3 1982         114
22 Japan/Akita  39.7  140.   6.3 1983         109
23 Japan/Akita  39.7  140.   6.3 1984         126
24 Japan/Akita  39.7  140.   6.3 1985         113
25 Japan/Akita  39.7  140.   6.3 1986         115
26 Japan/Akita  39.7  140.   6.3 1987         111
27 Japan/Akita  39.7  140.   6.3 1988         119
28 Japan/Akita  39.7  140.   6.3 1989         105
29 Japan/Akita  39.7  140.   6.3 1990         103
30 Japan/Akita  39.7  140.   6.3 1991         112
31 Japan/Akita  39.7  140.   6.3 1992         113
32 Japan/Akita  39.7  140.   6.3 1993         114
33 Japan/Akita  39.7  140.   6.3 1994         114
34 Japan/Akita  39.7  140.   6.3 1995         113
35 Japan/Akita  39.7  140.   6.3 1996         121
36 Japan/Akita  39.7  140.   6.3 1997         112
37 Japan/Akita  39.7  140.   6.3 1998         106
38 Japan/Akita  39.7  140.   6.3 1999         110
39 Japan/Akita  39.7  140.   6.3 2000         116
40 Japan/Akita  39.7  140.   6.3 2001         108
41 Japan/Akita  39.7  140.   6.3 2002         102
42 Japan/Akita  39.7  140.   6.3 2003         111
43 Japan/Akita  39.7  140.   6.3 2004         107
44 Japan/Akita  39.7  140.   6.3 2005         118
45 Japan/Akita  39.7  140.   6.3 2006         116
46 Japan/Akita  39.7  140.   6.3 2007         113
47 Japan/Akita  39.7  140.   6.3 2008         106
48 Japan/Akita  39.7  140.   6.3 2009         109
49 Japan/Akita  39.7  140.   6.3 2010         118
50 Japan/Akita  39.7  140.   6.3 2011         117
# … with 2,779 more rows
> mean<-group_by(datanm2,year)%>% summarise(mean = mean(Fbloom_doy));mean
# A tibble: 69 × 2
   year   mean
   <chr> <dbl>
 1 1953  105. 
 2 1954  101. 
 3 1955  101. 
 4 1956  105. 
 5 1957  107. 
 6 1958  103. 
 7 1959   97.4
 8 1960  103. 
 9 1961  102. 
10 1962  105. 
# … with 59 more rows
> plot (mean$mean~mean$year,col="red", type='l',lwd=2, xlab="Year", 
+       ylab="Mean of full bloom date", main="Mean of Fbloom day vs Year",
+       cex.axis = 1.1, cex.lab = 1.2,font.lab=2)
> plot (mean$mean~mean$year,col="red",lwd=2, xlab="Year", 
+       ylab="Mean of full bloom date", main="Mean of Fbloom day vs Year",pch = 19,cex=0.6,
+       cex.axis = 1.1, cex.lab = 1.2,font.lab=2)
> plot (mean$mean~mean$year,col="red", type='l',lwd=2, xlab="Year", 
+       ylab="Mean of full bloom date", main="Mean of Fbloom day vs Year",
+       cex.axis = 1.1, cex.lab = 1.2,font.lab=2)
> plot (mean$mean~mean$year,col="red",lwd=2, xlab="Year", 
+       ylab="Mean of full bloom date", main="Mean of Fbloom day vs Year",pch = 19,cex=0.6,
+       cex.axis = 1.1, cex.lab = 1.2,font.lab=2)
> ## by alt
> mean2<-group_by(datanm2,lat)%>% summarise(mean = mean(Fbloom_doy));mean2
# A tibble: 41 × 2
     lat  mean
   <dbl> <dbl>
 1  31.6  94  
 2  31.9  92.5
 3  32.7  92.9
 4  32.8  92.0
 5  33.2  94.7
 6  33.8  94.8
 7  33.9  96  
 8  34.1  95.4
 9  34.3  96.0
10  34.4  95.6
# … with 31 more rows
…
> library(tidyverse)
> library(readxl)
> library (ISLR)
> library (splines )
> 
> #1
> data1 <- read_excel("FullFlower.xls", col_names = TRUE,na=c("","NA"))
> data1                                                                                              
# A tibble: 1,221 × 6
      AD `Full-flowering date (DOY)` `Full-flowering …` `Source code` `Data type code` `Reference Name`
   <dbl>                       <dbl>              <dbl>         <dbl>            <dbl> <chr>           
 1   801                          NA                 NA            NA               NA -               
 2   802                          NA                 NA            NA               NA -               
 3   803                          NA                 NA            NA               NA -               
 4   804                          NA                 NA            NA               NA -               
 5   805                          NA                 NA            NA               NA -               
 6   806                          NA                 NA            NA               NA -               
 7   807                          NA                 NA            NA               NA -               
 8   808                          NA                 NA            NA               NA -               
 9   809                          NA                 NA            NA               NA -               
10   810                          NA                 NA            NA               NA -               
# … with 1,211 more rows
…
